HDL/msim_sample_1/work/dump.vcd
$date
	Mon Nov  2 15:55:56 2015
$end
$version
	ModelSim Version 10.3d
$end
$timescale
	1ps
$end

$scope module test_module $end
$var reg 1 ! clk $end
$var reg 1 " rst_x $end
$var reg 8 # i_in [7:0] $end
$var wire 1 $ o_out [7] $end
$var wire 1 % o_out [6] $end
$var wire 1 & o_out [5] $end
$var wire 1 ' o_out [4] $end
$var wire 1 ( o_out [3] $end
$var wire 1 ) o_out [2] $end
$var wire 1 * o_out [1] $end
$var wire 1 + o_out [0] $end
$var integer 32 , i $end

$scope task reset $end
$upscope $end

$scope module _mod_top $end
$var wire 1 - clk $end
$var wire 1 . rst_x $end
$var wire 1 / i_in [7] $end
$var wire 1 0 i_in [6] $end
$var wire 1 1 i_in [5] $end
$var wire 1 2 i_in [4] $end
$var wire 1 3 i_in [3] $end
$var wire 1 4 i_in [2] $end
$var wire 1 5 i_in [1] $end
$var wire 1 6 i_in [0] $end
$var wire 1 $ o_out [7] $end
$var wire 1 % o_out [6] $end
$var wire 1 & o_out [5] $end
$var wire 1 ' o_out [4] $end
$var wire 1 ( o_out [3] $end
$var wire 1 ) o_out [2] $end
$var wire 1 * o_out [1] $end
$var wire 1 + o_out [0] $end
$var wire 1 7 w_out_a [7] $end
$var wire 1 8 w_out_a [6] $end
$var wire 1 9 w_out_a [5] $end
$var wire 1 : w_out_a [4] $end
$var wire 1 ; w_out_a [3] $end
$var wire 1 < w_out_a [2] $end
$var wire 1 = w_out_a [1] $end
$var wire 1 > w_out_a [0] $end

$scope module u_mod_a $end
$var wire 1 - clk $end
$var wire 1 . rst_x $end
$var wire 1 / i_in [7] $end
$var wire 1 0 i_in [6] $end
$var wire 1 1 i_in [5] $end
$var wire 1 2 i_in [4] $end
$var wire 1 3 i_in [3] $end
$var wire 1 4 i_in [2] $end
$var wire 1 5 i_in [1] $end
$var wire 1 6 i_in [0] $end
$var reg 8 ? o_out [7:0] $end
$upscope $end

$scope module u_mod_b $end
$var wire 1 - clk $end
$var wire 1 . rst_x $end
$var wire 1 7 i_in [7] $end
$var wire 1 8 i_in [6] $end
$var wire 1 9 i_in [5] $end
$var wire 1 : i_in [4] $end
$var wire 1 ; i_in [3] $end
$var wire 1 < i_in [2] $end
$var wire 1 = i_in [1] $end
$var wire 1 > i_in [0] $end
$var reg 8 @ o_out [7:0] $end
$upscope $end
$upscope $end
$upscope $end

$scope begin std $end
$upscope $end
$enddefinitions $end
#0
$dumpvars
1!
0"
bx #
b0 ?
b0 @
bx ,
0+
0*
0)
0(
0'
0&
0%
0$
0>
0=
0<
0;
0:
09
08
07
1-
0.
x6
x5
x4
x3
x2
x1
x0
x/
$end
#5
0!
0-
#10
1!
1-
#15
0!
0-
#20
1!
1-
#25
0!
0-
#30
1!
1-
#35
0!
0-
#40
1!
1-
#45
0!
0-
#50
1!
1-
#55
0!
0-
#60
1!
1-
#65
0!
0-
#70
1!
1-
#75
0!
0-
#80
1!
1-
#85
0!
0-
#90
1!
1-
#95
0!
0-
#100
1!
1-
#105
0!
0-
1"
1.
#110
1!
1-
bx ?
b11111111 @
1+
1*
1)
1(
1'
1&
1%
1$
x>
x=
x<
x;
x:
x9
x8
x7
#115
0!
0-
#120
1!
1-
bx @
x+
x*
x)
x(
x'
x&
x%
x$
#125
0!
0-
#130
1!
1-
#135
0!
0-
#140
1!
1-
#145
0!
0-
#150
1!
1-
#155
0!
0-
#160
1!
1-
#165
0!
0-
#170
1!
1-
#175
0!
0-
#180
1!
1-
#185
0!
0-
#190
1!
1-
#195
0!
0-
#200
1!
1-
#205
0!
0-
#210
1!
1-
b0 ,
b100100 #
06
05
14
03
02
11
00
0/
#215
0!
0-
#220
1!
1-
b1 ,
b10000001 #
16
04
01
1/
b100100 ?
0>
0=
1<
0;
0:
19
08
07
#225
0!
0-
#230
1!
1-
b10 ,
b1001 #
13
0/
b10000001 ?
b11011011 @
1+
1*
0)
1(
1'
0&
1%
1$
1>
0<
09
17
#235
0!
0-
#240
1!
1-
b11 ,
b1100011 #
15
03
11
10
b1001 ?
b1111110 @
0+
1)
1&
0$
1;
07
#245
0!
0-
#250
1!
1-
b100 ,
b1101 #
05
14
13
01
00
b1100011 ?
b11110110 @
0(
1$
1=
0;
19
18
#255
0!
0-
#260
1!
1-
b101 ,
b10001101 #
1/
b1101 ?
b10011100 @
0*
1(
0&
0%
0=
1<
1;
09
08
#265
0!
0-
#270
1!
1-
b110 ,
b1100101 #
03
11
10
0/
b10001101 ?
b11110010 @
1*
0)
0(
1&
1%
17
#275
0!
0-
#280
1!
1-
b111 ,
b10010 #
06
15
04
12
01
00
b1100101 ?
b1110010 @
0$
0;
19
18
07
#285
0!
0-
#290
1!
1-
b1000 ,
b1 #
16
05
02
b10010 ?
b10011010 @
1(
0&
0%
1$
0>
1=
0<
1:
09
08
#295
0!
0-
#300
1!
1-
b1001 ,
b1101 #
14
13
b1 ?
b11101101 @
1+
0*
1)
0'
1&
1%
1>
0=
0:
#305
0!
0-
#310
1!
1-
b1010 ,
b1101 ?
b11111110 @
0+
1*
1'
1<
1;
#315
0!
0-
#320
1!
1-
b11110010 @
0)
0(
